Library\Bee\artifacts\movedfrom\UnityEditor.TestRunner.ref.dll_805665134635807371.movedfrom
Library\Bee\artifacts\movedfrom\UnityEngine.TestRunner.ref.dll_15513940679593414774.movedfrom
Library\Bee\artifacts\movedfrom\UnityEngine.UI.ref.dll_4673177533587997752.movedfrom
Library\Bee\artifacts\movedfrom\UnityEditor.Graphs.dll_3079374317040963713.movedfrom
Library\Bee\artifacts\movedfrom\UnityEditor.CoreModule.dll_15928113730511017295.movedfrom
Library\Bee\artifacts\movedfrom\UnityEditor.DeviceSimulatorModule.dll_14850283095341417122.movedfrom
Library\Bee\artifacts\movedfrom\UnityEditor.dll_13445414843324723990.movedfrom
Library\Bee\artifacts\movedfrom\UnityEditor.GraphViewModule.dll_1519019275919815239.movedfrom
Library\Bee\artifacts\movedfrom\UnityEditor.PackageManagerUIModule.dll_7540400772459374059.movedfrom
Library\Bee\artifacts\movedfrom\UnityEditor.QuickSearchModule.dll_16071085700192860361.movedfrom
Library\Bee\artifacts\movedfrom\UnityEditor.SceneTemplateModule.dll_895213756479183466.movedfrom
Library\Bee\artifacts\movedfrom\UnityEditor.UIBuilderModule.dll_7610328109633792891.movedfrom
Library\Bee\artifacts\movedfrom\UnityEditor.UIElementsModule.dll_738780153701304363.movedfrom
Library\Bee\artifacts\movedfrom\UnityEditor.UIElementsSamplesModule.dll_1676674587432576242.movedfrom
Library\Bee\artifacts\movedfrom\UnityEditor.UIServiceModule.dll_11713689436638919573.movedfrom
Library\Bee\artifacts\movedfrom\UnityEditor.UnityConnectModule.dll_5648849192714103685.movedfrom
Library\Bee\artifacts\movedfrom\UnityEngine.AccessibilityModule.dll_4544655125824815623.movedfrom
Library\Bee\artifacts\movedfrom\UnityEngine.AIModule.dll_1280535074350911427.movedfrom
Library\Bee\artifacts\movedfrom\UnityEngine.AndroidJNIModule.dll_9838559194965931777.movedfrom
Library\Bee\artifacts\movedfrom\UnityEngine.AnimationModule.dll_16400456334539540205.movedfrom
Library\Bee\artifacts\movedfrom\UnityEngine.ARModule.dll_14643494736950374028.movedfrom
Library\Bee\artifacts\movedfrom\UnityEngine.AssetBundleModule.dll_2517840108917468603.movedfrom
Library\Bee\artifacts\movedfrom\UnityEngine.AudioModule.dll_1725890777991029919.movedfrom
Library\Bee\artifacts\movedfrom\UnityEngine.ClothModule.dll_9141169796927456131.movedfrom
Library\Bee\artifacts\movedfrom\UnityEngine.ClusterInputModule.dll_14844202467931045451.movedfrom
Library\Bee\artifacts\movedfrom\UnityEngine.ClusterRendererModule.dll_15259198553986912294.movedfrom
Library\Bee\artifacts\movedfrom\UnityEngine.CoreModule.dll_12624999343390842.movedfrom
Library\Bee\artifacts\movedfrom\UnityEngine.CrashReportingModule.dll_7481298490951574610.movedfrom
Library\Bee\artifacts\movedfrom\UnityEngine.DirectorModule.dll_14362273776133250327.movedfrom
Library\Bee\artifacts\movedfrom\UnityEngine.dll_17094534336513179643.movedfrom
Library\Bee\artifacts\movedfrom\UnityEngine.DSPGraphModule.dll_14745468324954861112.movedfrom
Library\Bee\artifacts\movedfrom\UnityEngine.GameCenterModule.dll_12886733196621375474.movedfrom
Library\Bee\artifacts\movedfrom\UnityEngine.GIModule.dll_12250258189513930717.movedfrom
Library\Bee\artifacts\movedfrom\UnityEngine.GridModule.dll_15969190663518131825.movedfrom
Library\Bee\artifacts\movedfrom\UnityEngine.HotReloadModule.dll_7269617022407533167.movedfrom
Library\Bee\artifacts\movedfrom\UnityEngine.ImageConversionModule.dll_4590731446262433818.movedfrom
Library\Bee\artifacts\movedfrom\UnityEngine.IMGUIModule.dll_5788031430663125120.movedfrom
Library\Bee\artifacts\movedfrom\UnityEngine.InputLegacyModule.dll_12985642836022223788.movedfrom
Library\Bee\artifacts\movedfrom\UnityEngine.InputModule.dll_9108917502846388547.movedfrom
Library\Bee\artifacts\movedfrom\UnityEngine.JSONSerializeModule.dll_11468808968708399761.movedfrom
Library\Bee\artifacts\movedfrom\UnityEngine.LocalizationModule.dll_886643778880647492.movedfrom
Library\Bee\artifacts\movedfrom\UnityEngine.ParticleSystemModule.dll_13467225938293370848.movedfrom
Library\Bee\artifacts\movedfrom\UnityEngine.PerformanceReportingModule.dll_9246007155197841209.movedfrom
Library\Bee\artifacts\movedfrom\UnityEngine.Physics2DModule.dll_3476796595641892482.movedfrom
Library\Bee\artifacts\movedfrom\UnityEngine.PhysicsModule.dll_1206064396280670544.movedfrom
Library\Bee\artifacts\movedfrom\UnityEngine.ProfilerModule.dll_17984919633063191588.movedfrom
Library\Bee\artifacts\movedfrom\UnityEngine.RuntimeInitializeOnLoadManagerInitializerModule.dll_5345771510710874955.movedfrom
Library\Bee\artifacts\movedfrom\UnityEngine.ScreenCaptureModule.dll_13335460326361648883.movedfrom
Library\Bee\artifacts\movedfrom\UnityEngine.SharedInternalsModule.dll_14107188020421460842.movedfrom
Library\Bee\artifacts\movedfrom\UnityEngine.SpriteMaskModule.dll_11241919396086119788.movedfrom
Library\Bee\artifacts\movedfrom\UnityEngine.SpriteShapeModule.dll_4346632900224214469.movedfrom
Library\Bee\artifacts\movedfrom\UnityEngine.StreamingModule.dll_10965998413397655083.movedfrom
Library\Bee\artifacts\movedfrom\UnityEngine.SubstanceModule.dll_8420079554078669881.movedfrom
Library\Bee\artifacts\movedfrom\UnityEngine.SubsystemsModule.dll_482088031626552703.movedfrom
Library\Bee\artifacts\movedfrom\UnityEngine.TerrainModule.dll_3099400805599179326.movedfrom
Library\Bee\artifacts\movedfrom\UnityEngine.TerrainPhysicsModule.dll_13501751510067456621.movedfrom
Library\Bee\artifacts\movedfrom\UnityEngine.TextCoreModule.dll_6920871346002136359.movedfrom
Library\Bee\artifacts\movedfrom\UnityEngine.TextRenderingModule.dll_16307679995798572776.movedfrom
Library\Bee\artifacts\movedfrom\UnityEngine.TilemapModule.dll_14555546161869574983.movedfrom
Library\Bee\artifacts\movedfrom\UnityEngine.TLSModule.dll_3272490676123969060.movedfrom
Library\Bee\artifacts\movedfrom\UnityEngine.UIElementsModule.dll_787876955692048758.movedfrom
Library\Bee\artifacts\movedfrom\UnityEngine.UIElementsNativeModule.dll_12906919757394875917.movedfrom
Library\Bee\artifacts\movedfrom\UnityEngine.UIModule.dll_952790644141872495.movedfrom
Library\Bee\artifacts\movedfrom\UnityEngine.UmbraModule.dll_10576779167128211474.movedfrom
Library\Bee\artifacts\movedfrom\UnityEngine.UNETModule.dll_10579837642360616435.movedfrom
Library\Bee\artifacts\movedfrom\UnityEngine.UnityAnalyticsModule.dll_15745889886245126620.movedfrom
Library\Bee\artifacts\movedfrom\UnityEngine.UnityConnectModule.dll_4306640228648610864.movedfrom
Library\Bee\artifacts\movedfrom\UnityEngine.UnityCurlModule.dll_1636708089818036442.movedfrom
Library\Bee\artifacts\movedfrom\UnityEngine.UnityTestProtocolModule.dll_15206250870503324232.movedfrom
Library\Bee\artifacts\movedfrom\UnityEngine.UnityWebRequestAssetBundleModule.dll_6938901693494241709.movedfrom
Library\Bee\artifacts\movedfrom\UnityEngine.UnityWebRequestAudioModule.dll_17891884755045341649.movedfrom
Library\Bee\artifacts\movedfrom\UnityEngine.UnityWebRequestModule.dll_5860473493113840281.movedfrom
Library\Bee\artifacts\movedfrom\UnityEngine.UnityWebRequestTextureModule.dll_15747856406364603334.movedfrom
Library\Bee\artifacts\movedfrom\UnityEngine.UnityWebRequestWWWModule.dll_7258368483561190978.movedfrom
Library\Bee\artifacts\movedfrom\UnityEngine.VehiclesModule.dll_4545263864324713650.movedfrom
Library\Bee\artifacts\movedfrom\UnityEngine.VFXModule.dll_12558517759619829649.movedfrom
Library\Bee\artifacts\movedfrom\UnityEngine.VideoModule.dll_4394700626250514500.movedfrom
Library\Bee\artifacts\movedfrom\UnityEngine.VirtualTexturingModule.dll_15540598027674490520.movedfrom
Library\Bee\artifacts\movedfrom\UnityEngine.VRModule.dll_6920665455747062503.movedfrom
Library\Bee\artifacts\movedfrom\UnityEngine.WindModule.dll_8537617111283760867.movedfrom
Library\Bee\artifacts\movedfrom\UnityEngine.XRModule.dll_10577239827468068933.movedfrom
Library\Bee\artifacts\movedfrom\UnityEditor.Android.Extensions.dll_360167604786367319.movedfrom
Library\Bee\artifacts\movedfrom\UnityEditor.UWP.Extensions.dll_12284455275198331980.movedfrom
Library\Bee\artifacts\movedfrom\UnityEditor.WindowsStandalone.Extensions.dll_6894407572990953537.movedfrom