Library\Bee\artifacts\movedfrom\Unity.TextMeshPro.ref.dll_15513885131839481877.movedfrom
Library\Bee\artifacts\movedfrom\Unity.Timeline.ref.dll_16865080478962599989.movedfrom
Library\Bee\artifacts\movedfrom\UnityEngine.UI.ref.dll_10443453564797511174.movedfrom
Library\Bee\artifacts\movedfrom\UnityEngine.AccessibilityModule.dll_8640125577699394375.movedfrom
Library\Bee\artifacts\movedfrom\UnityEngine.AIModule.dll_3025852738077575811.movedfrom
Library\Bee\artifacts\movedfrom\UnityEngine.AndroidJNIModule.dll_12687974365144994241.movedfrom
Library\Bee\artifacts\movedfrom\UnityEngine.AnimationModule.dll_1601200474855192621.movedfrom
Library\Bee\artifacts\movedfrom\UnityEngine.ARModule.dll_16388812400677038412.movedfrom
Library\Bee\artifacts\movedfrom\UnityEngine.AssetBundleModule.dll_14699611000690034427.movedfrom
Library\Bee\artifacts\movedfrom\UnityEngine.AudioModule.dll_10674844467184158175.movedfrom
Library\Bee\artifacts\movedfrom\UnityEngine.ClothModule.dll_18090123486120584387.movedfrom
Library\Bee\artifacts\movedfrom\UnityEngine.ClusterInputModule.dll_2306243279133241611.movedfrom
Library\Bee\artifacts\movedfrom\UnityEngine.ClusterRendererModule.dll_11113543151345973606.movedfrom
Library\Bee\artifacts\movedfrom\UnityEngine.CoreModule.dll_3158761713035793210.movedfrom
Library\Bee\artifacts\movedfrom\UnityEngine.CrashReportingModule.dll_6050839323676782354.movedfrom
Library\Bee\artifacts\movedfrom\UnityEngine.DirectorModule.dll_13284695545339092951.movedfrom
Library\Bee\artifacts\movedfrom\UnityEngine.dll_10385040341378675003.movedfrom
Library\Bee\artifacts\movedfrom\UnityEngine.DSPGraphModule.dll_13667890094160703736.movedfrom
Library\Bee\artifacts\movedfrom\UnityEngine.GameCenterModule.dll_15736148366800437938.movedfrom
Library\Bee\artifacts\movedfrom\UnityEngine.GIModule.dll_13995575853240595101.movedfrom
Library\Bee\artifacts\movedfrom\UnityEngine.GridModule.dll_668583303500982577.movedfrom
Library\Bee\artifacts\movedfrom\UnityEngine.HotReloadModule.dll_10917105236432737199.movedfrom
Library\Bee\artifacts\movedfrom\UnityEngine.ImageConversionModule.dll_445076043621495130.movedfrom
Library\Bee\artifacts\movedfrom\UnityEngine.IMGUIModule.dll_14736985119856253376.movedfrom
Library\Bee\artifacts\movedfrom\UnityEngine.InputLegacyModule.dll_6720669654085237996.movedfrom
Library\Bee\artifacts\movedfrom\UnityEngine.InputModule.dll_18057871192039516803.movedfrom
Library\Bee\artifacts\movedfrom\UnityEngine.JSONSerializeModule.dll_15564279420582978513.movedfrom
Library\Bee\artifacts\movedfrom\UnityEngine.LocalizationModule.dll_6795428663792395268.movedfrom
Library\Bee\artifacts\movedfrom\UnityEngine.ParticleSystemModule.dll_12036766771018578592.movedfrom
Library\Bee\artifacts\movedfrom\UnityEngine.PerformanceReportingModule.dll_9522838292756668921.movedfrom
Library\Bee\artifacts\movedfrom\UnityEngine.Physics2DModule.dll_7124284809667096514.movedfrom
Library\Bee\artifacts\movedfrom\UnityEngine.PhysicsModule.dll_4520363440628429456.movedfrom
Library\Bee\artifacts\movedfrom\UnityEngine.ProfilerModule.dll_16907341402269034212.movedfrom
Library\Bee\artifacts\movedfrom\UnityEngine.RuntimeInitializeOnLoadManagerInitializerModule.dll_17498564085732287627.movedfrom
Library\Bee\artifacts\movedfrom\UnityEngine.ScreenCaptureModule.dll_17430930778236227635.movedfrom
Library\Bee\artifacts\movedfrom\UnityEngine.SharedInternalsModule.dll_9961532617780522154.movedfrom
Library\Bee\artifacts\movedfrom\UnityEngine.SpriteMaskModule.dll_14091334566265182252.movedfrom
Library\Bee\artifacts\movedfrom\UnityEngine.SpriteShapeModule.dll_16528403791996780293.movedfrom
Library\Bee\artifacts\movedfrom\UnityEngine.StreamingModule.dll_14613486627422859115.movedfrom
Library\Bee\artifacts\movedfrom\UnityEngine.SubstanceModule.dll_12067567768103873913.movedfrom
Library\Bee\artifacts\movedfrom\UnityEngine.SubsystemsModule.dll_3331503201805615167.movedfrom
Library\Bee\artifacts\movedfrom\UnityEngine.TerrainModule.dll_6413699849946938238.movedfrom
Library\Bee\artifacts\movedfrom\UnityEngine.TerrainPhysicsModule.dll_12071292342792664365.movedfrom
Library\Bee\artifacts\movedfrom\UnityEngine.TextCoreModule.dll_5843293115207978983.movedfrom
Library\Bee\artifacts\movedfrom\UnityEngine.TextRenderingModule.dll_1956406373963599912.movedfrom
Library\Bee\artifacts\movedfrom\UnityEngine.TilemapModule.dll_17869845206217333895.movedfrom
Library\Bee\artifacts\movedfrom\UnityEngine.TLSModule.dll_1597302611880779620.movedfrom
Library\Bee\artifacts\movedfrom\UnityEngine.UIElementsModule.dll_3637292125871111222.movedfrom
Library\Bee\artifacts\movedfrom\UnityEngine.UIElementsNativeModule.dll_16782229640014035149.movedfrom
Library\Bee\artifacts\movedfrom\UnityEngine.UIModule.dll_2698108307868536879.movedfrom
Library\Bee\artifacts\movedfrom\UnityEngine.UmbraModule.dll_1078988782611788114.movedfrom
Library\Bee\artifacts\movedfrom\UnityEngine.UNETModule.dll_13725974356053018803.movedfrom
Library\Bee\artifacts\movedfrom\UnityEngine.UnityAnalyticsModule.dll_14315430718970334364.movedfrom
Library\Bee\artifacts\movedfrom\UnityEngine.UnityConnectModule.dll_10215425113560358640.movedfrom
Library\Bee\artifacts\movedfrom\UnityEngine.UnityCurlModule.dll_5284196303843240474.movedfrom
Library\Bee\artifacts\movedfrom\UnityEngine.UnityTestProtocolModule.dll_13593336111403453320.movedfrom
Library\Bee\artifacts\movedfrom\UnityEngine.UnityWebRequestAssetBundleModule.dll_2506597899312383085.movedfrom
Library\Bee\artifacts\movedfrom\UnityEngine.UnityWebRequestAudioModule.dll_18168715892604169361.movedfrom
Library\Bee\artifacts\movedfrom\UnityEngine.UnityWebRequestModule.dll_1714818090472901593.movedfrom
Library\Bee\artifacts\movedfrom\UnityEngine.UnityWebRequestTextureModule.dll_1932102717273058950.movedfrom
Library\Bee\artifacts\movedfrom\UnityEngine.UnityWebRequestWWWModule.dll_4184086700015579394.movedfrom
Library\Bee\artifacts\movedfrom\UnityEngine.VehiclesModule.dll_3467685633530556274.movedfrom
Library\Bee\artifacts\movedfrom\UnityEngine.VFXModule.dll_10883329695376640209.movedfrom
Library\Bee\artifacts\movedfrom\UnityEngine.VideoModule.dll_13343654315443642756.movedfrom
Library\Bee\artifacts\movedfrom\UnityEngine.VirtualTexturingModule.dll_969163836584098136.movedfrom
Library\Bee\artifacts\movedfrom\UnityEngine.VRModule.dll_8665983119473726887.movedfrom
Library\Bee\artifacts\movedfrom\UnityEngine.WindModule.dll_11683753824976163235.movedfrom
Library\Bee\artifacts\movedfrom\UnityEngine.XRModule.dll_12322557491194733317.movedfrom